…
    ## The following objects are masked from 'package:base':
    ## 
    ##     intersect, setdiff, setequal, union

``` r
library(gapminder)
```

    ## Warning: package 'gapminder' was built under R version 3.5.1

``` r
gapminder
```

    ## # A tibble: 1,704 x 6
    ##    country     continent  year lifeExp      pop gdpPercap
    ##    <fct>       <fct>     <int>   <dbl>    <int>     <dbl>
    ##  1 Afghanistan Asia       1952    28.8  8425333      779.
    ##  2 Afghanistan Asia       1957    30.3  9240934      821.
    ##  3 Afghanistan Asia       1962    32.0 10267083      853.
    ##  4 Afghanistan Asia       1967    34.0 11537966      836.
    ##  5 Afghanistan Asia       1972    36.1 13079460      740.
    ##  6 Afghanistan Asia       1977    38.4 14880372      786.
    ##  7 Afghanistan Asia       1982    39.9 12881816      978.
    ##  8 Afghanistan Asia       1987    40.8 13867957      852.
    ##  9 Afghanistan Asia       1992    41.7 16317921      649.
    ## 10 Afghanistan Asia       1997    41.8 22227415      635.
    ## # ... with 1,694 more rows
…
5.  What countries and years had life expectancies of *at least* 80
    years? *N.b. only output the columns of interest: country, life
    expectancy and year (in that order).*

<!-- end list -->

``` r
gapminder %>%
  filter(lifeExp>80) %>%
  select(country, lifeExp, year)
```

    ## # A tibble: 21 x 3
    ##    country          lifeExp  year
    ##    <fct>              <dbl> <int>
    ##  1 Australia           80.4  2002
    ##  2 Australia           81.2  2007
    ##  3 Canada              80.7  2007
    ##  4 France              80.7  2007
    ##  5 Hong Kong, China    81.5  2002
    ##  6 Hong Kong, China    82.2  2007
    ##  7 Iceland             80.5  2002
    ##  8 Iceland             81.8  2007
    ##  9 Israel              80.7  2007
    ## 10 Italy               80.2  2002
    ## # ... with 11 more rows
…
<!-- end list -->

``` r
gapminder %>%
  filter(continent!="Asia") %>%
  group_by(continent, year) %>%
  summarise(avg_pop = mean(pop)) %>%
  arrange(desc(avg_pop))
```

    ## # A tibble: 48 x 3
    ## # Groups:   continent [4]
    ##    continent  year   avg_pop
    ##    <fct>     <int>     <dbl>
    ##  1 Americas   2007 35954847.
    ##  2 Americas   2002 33990910.
    ##  3 Americas   1997 31876016.
    ##  4 Americas   1992 29570964.
    ##  5 Americas   1987 27310159.
    ##  6 Americas   1982 25211637.
    ##  7 Americas   1977 23122708.
    ##  8 Americas   1972 21175368.
    ##  9 Europe     2007 19536618.
    ## 10 Europe     2002 19274129.
    ## # ... with 38 more rows
…
    ## [1] "tbl_df"     "tbl"        "data.frame"

10. Which observations indicate that the population of a country has
    *decreased* from the previous year **and** the life expectancy has
    *increased* from the previous year? See [the vignette on window
    functions](https://cran.r-project.org/web/packages/dplyr/vignettes/window-functions.html).

<!-- end list -->

``` r
gapminder %>%
  filter(pop<lag(pop) & lifeExp > lag(lifeExp))
```

    ## # A tibble: 53 x 6
    ##    country                continent  year lifeExp      pop gdpPercap
    ##    <fct>                  <fct>     <int>   <dbl>    <int>     <dbl>
    ##  1 Afghanistan            Asia       1982    39.9 12881816      978.
    ##  2 Albania                Europe     1952    55.2  1282697     1601.
    ##  3 Belgium                Europe     1952    68    8730405     8343.
    ##  4 Bosnia and Herzegovina Europe     1992    72.2  4256013     2547.
    ##  5 Bosnia and Herzegovina Europe     1997    73.2  3607000     4766.
    ##  6 Bulgaria               Europe     2002    72.1  7661799     7697.
    ##  7 Bulgaria               Europe     2007    73.0  7322858    10681.
    ##  8 Canada                 Americas   1952    68.8 14785584    11367.
    ##  9 Chile                  Americas   1952    54.7  6377619     3940.
    ## 10 Costa Rica             Americas   1952    57.2   926317     2627.
    ## # ... with 43 more rows
